<?xml version="1.0" encoding="utf-8"?>
<!-- Generator: Adobe Illustrator 22.1.0, SVG Export Plug-In . SVG Version: 6.00 Build 0)  -->
<svg aria-hidden="true" focusable="false" data-prefix="fal" data-icon="angle-right" role="img"
     xmlns="http://www.w3.org/2000/svg" viewBox="0 0 192 512" class="svg-inline--fa fa-angle-right fa-w-6">
    <path fill="currentColor"
          d="M166.9 264.5l-117.8 116c-4.7 4.7-12.3 4.7-17 0l-7.1-7.1c-4.7-4.7-4.7-12.3 0-17L127.3 256 25.1 155.6c-4.7-4.7-4.7-12.3 0-17l7.1-7.1c4.7-4.7 12.3-4.7 17 0l117.8 116c4.6 4.7 4.6 12.3-.1 17z"
          class="">
    </path>
</svg>
